{
  "default": {
    "account.add_or_remove_from_list": "Add or Remove from lists",
    "account.badges.bot": "Bot",
    "account.block": "Block @{name}",
    "account.block_domain": "Hide everything from {domain}",
    "account.blocked": "Blocked",
    "account.direct": "Direct message @{name}",
    "account.domain_blocked": "Domain hidden",
    "account.edit_profile": "Edit profile",
    "account.endorse": "Feature on profile",
    "account.follow": "Follow",
    "account.followers": "Followers",
    "account.followers.empty": "No one follows this user yet.",
    "account.follows": "Follows",
    "account.follows.empty": "This user doesn\"t follow anyone yet.",
    "account.follows_you": "Follows you",
    "account.hide_reblogs": "Hide reposts from @{name}",
    "account.link_verified_on": "Ownership of this link was checked on {date}",
    "account.locked_info": "This account privacy status is set to locked. The owner manually reviews who can follow them.",
    "account.login": "Log in",
    "account.media": "Media",
    "account.member_since": "Joined {date}",
    "account.mention": "Mention",
    "account.message": "Message",
    "account.moved_to": "{name} has moved to:",
    "account.mute": "Mute @{name}",
    "account.mute_notifications": "Mute notifications from @{name}",
    "account.muted": "Muted",
    "account.posts": "Posts",
    "account.posts_with_replies": "Posts and replies",
    "account.profile": "Profile",
    "account.register": "Sign up",
    "account.report": "Report @{name}",
    "account.requested": "Awaiting approval. Click to cancel follow request",
    "account.share": "Share @{name}\"s profile",
    "account.show_reblogs": "Show reposts from @{name}",
    "account.unblock": "Unblock @{name}",
    "account.unblock_domain": "Unhide {domain}",
    "account.unendorse": "Don\"t feature on profile",
    "account.unfollow": "Unfollow",
    "account.unmute": "Unmute @{name}",
    "account.unmute_notifications": "Unmute notifications from @{name}",
    "account_gallery.none": "No media to show.",
    "alert.unexpected.message": "An unexpected error occurred.",
    "alert.unexpected.title": "Oops!",
    "audio.close": "Close audio",
    "audio.expand": "Expand audio",
    "audio.hide": "Hide audio",
    "audio.mute": "Mute",
    "audio.pause": "Pause",
    "audio.play": "Play",
    "audio.unmute": "Unmute",
    "boost_modal.combo": "You can press {combo} to skip this next time",
    "bundle_column_error.body": "Something went wrong while loading this component.",
    "bundle_column_error.retry": "Try again",
    "bundle_column_error.title": "Network error",
    "bundle_modal_error.close": "Close",
    "bundle_modal_error.message": "Something went wrong while loading this component.",
    "bundle_modal_error.retry": "Try again",
    "column.blocks": "Blocked users",
    "column.community": "Local timeline",
    "column.direct": "Direct messages",
    "column.domain_blocks": "Hidden domains",
    "column.edit_profile": "Edit profile",
    "column.filters": "Muted words",
    "column.follow_requests": "Follow requests",
    "column.groups": "Groups",
    "column.home": "Home",
    "column.lists": "Lists",
    "column.mutes": "Muted users",
    "column.notifications": "Notifications",
    "column.preferences": "Preferences",
    "column.public": "Federated timeline",
    "column.security": "Security",
    "column_back_button.label": "Back",
    "column_header.hide_settings": "Hide settings",
    "column_header.show_settings": "Show settings",
    "column_subheading.settings": "Settings",
    "community.column_settings.media_only": "Media Only",
    "compose_form.direct_message_warning": "This post will only be sent to the mentioned users.",
    "compose_form.direct_message_warning_learn_more": "Learn more",
    "compose_form.hashtag_warning": "This post won\"t be listed under any hashtag as it is unlisted. Only public posts can be searched by hashtag.",
    "compose_form.lock_disclaimer": "Your account is not {locked}. Anyone can follow you to view your follower-only posts.",
    "compose_form.lock_disclaimer.lock": "locked",
    "compose_form.placeholder": "What\"s on your mind?",
    "compose_form.poll.add_option": "Add a choice",
    "compose_form.poll.duration": "Poll duration",
    "compose_form.poll.option_placeholder": "Choice {number}",
    "compose_form.poll.remove_option": "Remove this choice",
    "compose_form.poll.type.hint": "Click to toggle poll type. Radio button (default) is single. Checkbox is multiple.",
    "compose_form.publish": "Publish",
    "compose_form.publish_loud": "{publish}!",
    "compose_form.sensitive.hide": "Mark media as sensitive",
    "compose_form.sensitive.marked": "Media is marked as sensitive",
    "compose_form.sensitive.unmarked": "Media is not marked as sensitive",
    "compose_form.spoiler.marked": "Text is hidden behind warning",
    "compose_form.spoiler.unmarked": "Text is not hidden",
    "compose_form.spoiler_placeholder": "Write your warning here",
    "confirmation_modal.cancel": "Cancel",
    "confirmations.block.block_and_report": "Block & Report",
    "confirmations.block.confirm": "Block",
    "confirmations.block.message": "Are you sure you want to block {name}?",
    "confirmations.delete.confirm": "Delete",
    "confirmations.delete.message": "Are you sure you want to delete this post?",
    "confirmations.delete_list.confirm": "Delete",
    "confirmations.delete_list.message": "Are you sure you want to permanently delete this list?",
    "confirmations.domain_block.confirm": "Hide entire domain",
    "confirmations.domain_block.message": "Are you really, really sure you want to block the entire {domain}? In most cases a few targeted blocks or mutes are sufficient and preferable. You will not see content from that domain in any public timelines or your notifications. Your followers from that domain will be removed.",
    "confirmations.mute.confirm": "Mute",
    "confirmations.mute.message": "Are you sure you want to mute {name}?",
    "confirmations.redraft.confirm": "Delete & redraft",
    "confirmations.redraft.message": "Are you sure you want to delete this post and re-draft it? Favorites and reposts will be lost, and replies to the original post will be orphaned.",
    "confirmations.reply.confirm": "Reply",
    "confirmations.reply.message": "Replying now will overwrite the message you are currently composing. Are you sure you want to proceed?",
    "confirmations.unfollow.confirm": "Unfollow",
    "confirmations.unfollow.message": "Are you sure you want to unfollow {name}?",
    "donate": "Donate",
    "edit_profile.fields.avatar_label": "Avatar",
    "edit_profile.fields.bio_label": "Bio",
    "edit_profile.fields.bot_label": "This is a bot account",
    "edit_profile.fields.display_name_label": "Display name",
    "edit_profile.fields.header_label": "Header",
    "edit_profile.fields.locked_label": "Lock account",
    "edit_profile.fields.meta_fields.content_placeholder": "Content",
    "edit_profile.fields.meta_fields.label_placeholder": "Label",
    "edit_profile.fields.meta_fields_label": "Profile metadata",
    "edit_profile.hints.avatar": "PNG, GIF or JPG. Will be downscaled to {size}",
    "edit_profile.hints.bot": "This account mainly performs automated actions and might not be monitored",
    "edit_profile.hints.header": "PNG, GIF or JPG. Will be downscaled to {size}",
    "edit_profile.hints.locked": "Requires you to manually approve followers",
    "edit_profile.hints.meta_fields": "You can have up to {count, plural, one {# item} other {# items}} displayed as a table on your profile",
    "edit_profile.save": "Save",
    "embed.instructions": "Embed this post on your website by copying the code below.",
    "embed.preview": "Here is what it will look like:",
    "emoji_button.activity": "Activity",
    "emoji_button.custom": "Custom",
    "emoji_button.flags": "Flags",
    "emoji_button.food": "Food & Drink",
    "emoji_button.label": "Insert emoji",
    "emoji_button.nature": "Nature",
    "emoji_button.not_found": "No emojos!! (╯°□°）╯︵ ┻━┻",
    "emoji_button.objects": "Objects",
    "emoji_button.people": "People",
    "emoji_button.recent": "Frequently used",
    "emoji_button.search": "Search...",
    "emoji_button.search_results": "Search results",
    "emoji_button.symbols": "Symbols",
    "emoji_button.travel": "Travel & Places",
    "empty_column.account_timeline": "No posts here!",
    "empty_column.account_unavailable": "Profile unavailable",
    "empty_column.blocks": "You haven\"t blocked any users yet.",
    "empty_column.community": "The local timeline is empty. Write something publicly to get the ball rolling!",
    "empty_column.direct": "You don\"t have any direct messages yet. When you send or receive one, it will show up here.",
    "empty_column.domain_blocks": "There are no hidden domains yet.",
    "empty_column.favourited_statuses": "You don\"t have any liked posts yet. When you like one, it will show up here.",
    "empty_column.favourites": "No one has liked this post yet. When someone does, they will show up here.",
    "empty_column.filters": "You haven\"t created any muted words yet.",
    "empty_column.follow_requests": "You don\"t have any follow requests yet. When you receive one, it will show up here.",
    "empty_column.group": "There is nothing in this group yet. When members of this group make new posts, they will appear here.",
    "empty_column.hashtag": "There is nothing in this hashtag yet.",
    "empty_column.home": "Your home timeline is empty! Visit {public} to get started and meet other users.",
    "empty_column.home.local_tab": "the {site_title} tab",
    "empty_column.list": "There is nothing in this list yet. When members of this list create new posts, they will appear here.",
    "empty_column.lists": "You don\"t have any lists yet. When you create one, it will show up here.",
    "empty_column.mutes": "You haven\"t muted any users yet.",
    "empty_column.notifications": "You don\"t have any notifications yet. Interact with others to start the conversation.",
    "empty_column.public": "There is nothing here! Write something publicly, or manually follow users from other servers to fill it up",
    "fediverse_tab.explanation_box.explanation": "{site_title} is part of the Fediverse, a social network made up of thousands of independent social media sites (aka 'servers'). The posts you see here are from 3rd-party servers. You have the freedom to engage with them, or to block any server you don\"t like. Pay attention to the full username after the second @ symbol to know which server a post is from. To see only {site_title} posts, visit {local}.",
    "fediverse_tab.explanation_box.title": "What is the Fediverse?",
    "follow_request.authorize": "Authorize",
    "follow_request.reject": "Reject",
    "getting_started.heading": "Getting started",
    "getting_started.open_source_notice": "{code_name} is open source software. You can contribute or report issues at {code_link} (v{code_version}).",
    "group.members.empty": "This group does not has any members.",
    "group.removed_accounts.empty": "This group does not has any removed accounts.",
    "groups.card.join": "Join",
    "groups.card.members": "Members",
    "groups.card.roles.admin": "You\"re an admin",
    "groups.card.roles.member": "You\"re a member",
    "groups.card.view": "View",
    "groups.create": "Create group",
    "groups.form.coverImage": "Upload new banner image (optional)",
    "groups.form.coverImageChange": "Banner image selected",
    "groups.form.create": "Create group",
    "groups.form.description": "Description",
    "groups.form.title": "Title",
    "groups.form.update": "Update group",
    "groups.removed_accounts": "Removed Accounts",
    "groups.tab_admin": "Manage",
    "groups.tab_featured": "Featured",
    "groups.tab_member": "Member",
    "hashtag.column_header.tag_mode.all": "and {additional}",
    "hashtag.column_header.tag_mode.any": "or {additional}",
    "hashtag.column_header.tag_mode.none": "without {additional}",
    "home.column_settings.basic": "Basic",
    "home.column_settings.show_reblogs": "Show reposts",
    "home.column_settings.show_replies": "Show replies",
    "home_column.lists": "Lists",
    "home_column_header.fediverse": "Fediverse",
    "home_column_header.home": "Home",
    "intervals.full.days": "{number, plural, one {# day} other {# days}}",
    "intervals.full.hours": "{number, plural, one {# hour} other {# hours}}",
    "intervals.full.minutes": "{number, plural, one {# minute} other {# minutes}}",
    "keyboard_shortcuts.back": "to navigate back",
    "keyboard_shortcuts.blocked": "to open blocked users list",
    "keyboard_shortcuts.boost": "to repost",
    "keyboard_shortcuts.column": "to focus a post in one of the columns",
    "keyboard_shortcuts.compose": "to focus the compose textarea",
    "keyboard_shortcuts.direct": "to open direct messages column",
    "keyboard_shortcuts.down": "to move down in the list",
    "keyboard_shortcuts.enter": "to open post",
    "keyboard_shortcuts.favourite": "to like",
    "keyboard_shortcuts.favourites": "to open likes list",
    "keyboard_shortcuts.heading": "Keyboard shortcuts",
    "keyboard_shortcuts.home": "to open home timeline",
    "keyboard_shortcuts.hotkey": "Hotkey",
    "keyboard_shortcuts.legend": "to display this legend",
    "keyboard_shortcuts.mention": "to mention author",
    "keyboard_shortcuts.muted": "to open muted users list",
    "keyboard_shortcuts.my_profile": "to open your profile",
    "keyboard_shortcuts.notifications": "to open notifications column",
    "keyboard_shortcuts.pinned": "to open pinned posts list",
    "keyboard_shortcuts.profile": "to open author\"s profile",
    "keyboard_shortcuts.reply": "to reply",
    "keyboard_shortcuts.requests": "to open follow requests list",
    "keyboard_shortcuts.search": "to focus search",
    "keyboard_shortcuts.start": "to open 'get started' column",
    "keyboard_shortcuts.toggle_hidden": "to show/hide text behind CW",
    "keyboard_shortcuts.toggle_sensitivity": "to show/hide media",
    "keyboard_shortcuts.toot": "to start a new post",
    "keyboard_shortcuts.unfocus": "to un-focus compose textarea/search",
    "keyboard_shortcuts.up": "to move up in the list",
    "lightbox.close": "Close",
    "lightbox.next": "Next",
    "lightbox.previous": "Previous",
    "lightbox.view_context": "View context",
    "list.click_to_add": "Click here to add people",
    "list_adder.header_title": "Add or Remove from Lists",
    "lists.account.add": "Add to list",
    "lists.account.remove": "Remove from list",
    "lists.delete": "Delete list",
    "lists.edit": "Edit list",
    "lists.edit.submit": "Change title",
    "lists.new.create": "Add list",
    "lists.new.create_title": "Create",
    "lists.new.save_title": "Save Title",
    "lists.new.title_placeholder": "New list title",
    "lists.search": "Search among people you follow",
    "lists.subheading": "Your lists",
    "lists.view_all": "View all lists",
    "loading_indicator.label": "Loading...",
    "login.fields.password_placeholder": "Password",
    "login.fields.username_placeholder": "Username",
    "login.log_in": "Log in",
    "login.reset_password_hint": "Trouble logging in?",
    "media_gallery.toggle_visible": "Toggle visibility",
    "missing_indicator.label": "Not found",
    "missing_indicator.sublabel": "This resource could not be found",
    "morefollows.followers_label": "…and {count} more {count, plural, one {follower} other {followers}} on remote sites.",
    "morefollows.following_label": "…and {count} more {count, plural, one {follow} other {follows}} on remote sites.",
    "mute_modal.hide_notifications": "Hide notifications from this user?",
    "navigation_bar.admin_settings": "Admin settings",
    "navigation_bar.soapbox_config": "Soapbox config",
    "navigation_bar.blocks": "Blocked users",
    "navigation_bar.community_timeline": "Local timeline",
    "navigation_bar.compose": "Compose new post",
    "navigation_bar.direct": "Direct messages",
    "navigation_bar.discover": "Discover",
    "navigation_bar.domain_blocks": "Hidden domains",
    "navigation_bar.edit_profile": "Edit profile",
    "navigation_bar.favourites": "Likes",
    "navigation_bar.filters": "Muted words",
    "navigation_bar.follow_requests": "Follow requests",
    "navigation_bar.info": "About this server",
    "navigation_bar.keyboard_shortcuts": "Hotkeys",
    "navigation_bar.lists": "Lists",
    "navigation_bar.logout": "Logout",
    "navigation_bar.messages": "Messages",
    "navigation_bar.mutes": "Muted users",
    "navigation_bar.personal": "Personal",
    "navigation_bar.pins": "Pinned posts",
    "navigation_bar.preferences": "Preferences",
    "navigation_bar.public_timeline": "Federated timeline",
    "navigation_bar.security": "Security",
    "notification.pleroma:emoji_reaction": "{name} reacted to your post",
    "notification.favourite": "{name} liked your post",
    "notification.follow": "{name} followed you",
    "notification.mention": "{name} mentioned you",
    "notification.poll": "A poll you have voted in has ended",
    "notification.reblog": "{name} reposted your post",
    "notifications.clear": "Clear notifications",
    "notifications.clear_confirmation": "Are you sure you want to permanently clear all your notifications?",
    "notifications.column_settings.alert": "Desktop notifications",
    "notifications.column_settings.favourite": "Likes:",
    "notifications.column_settings.filter_bar.advanced": "Display all categories",
    "notifications.column_settings.filter_bar.category": "Quick filter bar",
    "notifications.column_settings.filter_bar.show": "Show",
    "notifications.column_settings.follow": "New followers:",
    "notifications.column_settings.mention": "Mentions:",
    "notifications.column_settings.poll": "Poll results:",
    "notifications.column_settings.push": "Push notifications",
    "notifications.column_settings.reblog": "Reposts:",
    "notifications.column_settings.show": "Show in column",
    "notifications.column_settings.sound": "Play sound",
    "notifications.filter.all": "All",
    "notifications.filter.boosts": "Reposts",
    "notifications.filter.favourites": "Likes",
    "notifications.filter.follows": "Follows",
    "notifications.filter.mentions": "Mentions",
    "notifications.filter.polls": "Poll results",
    "notifications.group": "{count} notifications",
    "notifications.queue_label": "Click to see {count} new {count, plural, one {notification} other {notifications}}",
    "pinned_statuses.none": "No pins to show.",
    "poll.closed": "Closed",
    "poll.refresh": "Refresh",
    "poll.total_votes": "{count, plural, one {# vote} other {# votes}}",
    "poll.vote": "Vote",
    "poll_button.add_poll": "Add a poll",
    "poll_button.remove_poll": "Remove poll",
    "preferences.fields.auto_play_gif_label": "Auto-play animated GIFs",
    "preferences.fields.boost_modal_label": "Show confirmation dialog before reposting",
    "preferences.fields.delete_modal_label": "Show confirmation dialog before deleting a post",
    "preferences.fields.demetricator_label": "Use Demetricator",
    "preferences.fields.dyslexic_font_label": "Dyslexic mode",
    "preferences.fields.expand_spoilers_label": "Always expand posts marked with content warnings",
    "preferences.fields.language_label": "Language",
    "preferences.fields.privacy_label": "Post privacy",
    "preferences.fields.reduce_motion_label": "Reduce motion in animations",
    "preferences.fields.system_font_label": "Use system\"s default font",
    "preferences.fields.theme_label": "Theme",
    "preferences.fields.unfollow_modal_label": "Show confirmation dialog before unfollowing someone",
    "preferences.hints.demetricator": "Decrease social media anxiety by hiding all numbers from the site.",
    "preferences.hints.privacy_followers_only": "Only show to followers",
    "preferences.hints.privacy_public": "Everyone can see",
    "preferences.hints.privacy_unlisted": "Everyone can see, but not listed on public timelines",
    "preferences.options.privacy_followers_only": "Followers-only",
    "preferences.options.privacy_public": "Public",
    "preferences.options.privacy_unlisted": "Unlisted",
    "preferences.options.theme_dark": "Dark",
    "preferences.options.theme_light": "Light",
    "privacy.change": "Adjust post privacy",
    "privacy.direct.long": "Post to mentioned users only",
    "privacy.direct.short": "Direct",
    "privacy.private.long": "Post to followers only",
    "privacy.private.short": "Followers-only",
    "privacy.public.long": "Post to public timelines",
    "privacy.public.short": "Public",
    "privacy.unlisted.long": "Do not post to public timelines",
    "privacy.unlisted.short": "Unlisted",
    "regeneration_indicator.label": "Loading…",
    "regeneration_indicator.sublabel": "Your home feed is being prepared!",
    "registration.agreement": "I agree to the {tos}.",
    "registration.fields.confirm_placeholder": "Password (again)",
    "registration.fields.email_placeholder": "E-Mail address",
    "registration.fields.password_placeholder": "Password",
    "registration.fields.username_placeholder": "Username",
    "registration.lead": "With an account on {instance} you\"ll be able to follow people on any server in the fediverse.",
    "registration.sign_up": "Sign up",
    "registration.tos": "Terms of Service",
    "relative_time.days": "{number}d",
    "relative_time.hours": "{number}h",
    "relative_time.just_now": "now",
    "relative_time.minutes": "{number}m",
    "relative_time.seconds": "{number}s",
    "reply_indicator.cancel": "Cancel",
    "report.block": "Block {target}",
    "report.block_hint": "Do you also want to block this account?",
    "report.forward": "Forward to {target}",
    "report.forward_hint": "The account is from another server. Send a copy of the report there as well?",
    "report.hint": "The report will be sent to your server moderators. You can provide an explanation of why you are reporting this account below:",
    "report.placeholder": "Additional comments",
    "report.submit": "Submit",
    "report.target": "Reporting {target}",
    "search.placeholder": "Search",
    "search_popout.search_format": "Advanced search format",
    "search_popout.tips.full_text": "Simple text returns posts you have written, favorited, reposted, or have been mentioned in, as well as matching usernames, display names, and hashtags.",
    "search_popout.tips.hashtag": "hashtag",
    "search_popout.tips.status": "post",
    "search_popout.tips.user": "user",
    "search_results.accounts": "People",
    "search_results.hashtags": "Hashtags",
    "search_results.statuses": "Posts",
    "search_results.top": "Top",
    "search_results.total": "{count, number} {count, plural, one {result} other {results}}",
    "security.fields.email.label": "Email address",
    "security.fields.new_password.label": "New password",
    "security.fields.old_password.label": "Current password",
    "security.fields.password.label": "Password",
    "security.fields.password_confirmation.label": "New password (again)",
    "security.headers.tokens": "Sessions",
    "security.headers.update_email": "Change Email",
    "security.headers.update_password": "Change Password",
    "security.submit": "Save changes",
    "security.tokens.revoke": "Revoke",
    "security.update_email.fail": "Update email failed.",
    "security.update_email.success": "Email successfully updated.",
    "security.update_password.fail": "Update password failed.",
    "security.update_password.success": "Password successfully updated.",
    "signup_panel.subtitle": "Sign up now to discuss.",
    "signup_panel.title": "New to {site_title}?",
    "status.admin_account": "Open moderation interface for @{name}",
    "status.admin_status": "Open this post in the moderation interface",
    "status.block": "Block @{name}",
    "status.cancel_reblog_private": "Un-repost",
    "status.cannot_reblog": "This post cannot be reposted",
    "status.copy": "Copy link to post",
    "status.delete": "Delete",
    "status.detailed_status": "Detailed conversation view",
    "status.direct": "Direct message @{name}",
    "status.embed": "Embed",
    "status.favourite": "Like",
    "status.filtered": "Filtered",
    "status.load_more": "Load more",
    "status.media_hidden": "Media hidden",
    "status.mention": "Mention @{name}",
    "status.more": "More",
    "status.mute": "Mute @{name}",
    "status.mute_conversation": "Mute conversation",
    "status.open": "Expand this post",
    "status.pin": "Pin on profile",
    "status.pinned": "Pinned post",
    "status.read_more": "Read more",
    "status.reblog": "Repost",
    "status.reblog_private": "Repost to original audience",
    "status.reblogged_by": "{name} reposted",
    "status.reblogs.empty": "No one has reposted this post yet. When someone does, they will show up here.",
    "status.redraft": "Delete & re-draft",
    "status.remove_account_from_group": "Remove account from group",
    "status.remove_post_from_group": "Remove post from group",
    "status.reply": "Reply",
    "status.replyAll": "Reply to thread",
    "status.report": "Report @{name}",
    "status.sensitive_warning": "Sensitive content",
    "status.share": "Share",
    "status.show_less": "Show less",
    "status.show_less_all": "Show less for all",
    "status.show_more": "Show more",
    "status.show_more_all": "Show more for all",
    "status.show_thread": "Show thread",
    "status.unmute_conversation": "Unmute conversation",
    "status.unpin": "Unpin from profile",
    "status_list.queue_label": "Click to see {count} new {count, plural, one {post} other {posts}}",
    "suggestions.dismiss": "Dismiss suggestion",
    "tabs_bar.apps": "Apps",
    "tabs_bar.home": "Home",
    "tabs_bar.news": "News",
    "tabs_bar.notifications": "Notifications",
    "tabs_bar.post": "Post",
    "tabs_bar.search": "Search",
    "time_remaining.days": "{number, plural, one {# day} other {# days}} left",
    "time_remaining.hours": "{number, plural, one {# hour} other {# hours}} left",
    "time_remaining.minutes": "{number, plural, one {# minute} other {# minutes}} left",
    "time_remaining.moments": "Moments remaining",
    "time_remaining.seconds": "{number, plural, one {# second} other {# seconds}} left",
    "trends.count_by_accounts": "{count} {rawCount, plural, one {person} other {people}} talking",
    "trends.title": "Trends",
    "ui.beforeunload": "Your draft will be lost if you leave.",
    "unauthorized_modal.footer": "Already have an account? {login}.",
    "unauthorized_modal.text": "You need to be logged in to do that.",
    "unauthorized_modal.title": "Sign up for {site_title}",
    "upload_area.title": "Drag & drop to upload",
    "upload_button.label": "Add media attachment",
    "upload_error.limit": "File upload limit exceeded.",
    "upload_error.poll": "File upload not allowed with polls.",
    "upload_form.description": "Describe for the visually impaired",
    "upload_form.focus": "Change preview",
    "upload_form.undo": "Delete",
    "upload_progress.label": "Uploading...",
    "video.close": "Close video",
    "video.exit_fullscreen": "Exit full screen",
    "video.expand": "Expand video",
    "video.fullscreen": "Full screen",
    "video.hide": "Hide video",
    "video.mute": "Mute sound",
    "video.pause": "Pause",
    "video.play": "Play",
    "video.unmute": "Unmute sound",
    "who_to_follow.title": "Who To Follow"
  },
  "account.add_or_remove_from_list": "Add or Remove from lists",
  "account.badges.bot": "Bot",
  "account.block": "Block @{name}",
  "account.block_domain": "Hide everything from {domain}",
  "account.blocked": "Blocked",
  "account.direct": "Direct message @{name}",
  "account.domain_blocked": "Domain hidden",
  "account.edit_profile": "Edit profile",
  "account.endorse": "Feature on profile",
  "account.follow": "Follow",
  "account.followers": "Followers",
  "account.followers.empty": "No one follows this user yet.",
  "account.follows": "Follows",
  "account.follows.empty": "This user doesn\"t follow anyone yet.",
  "account.follows_you": "Follows you",
  "account.hide_reblogs": "Hide reposts from @{name}",
  "account.link_verified_on": "Ownership of this link was checked on {date}",
  "account.locked_info": "This account privacy status is set to locked. The owner manually reviews who can follow them.",
  "account.login": "Log in",
  "account.media": "Media",
  "account.member_since": "Joined {date}",
  "account.mention": "Mention",
  "account.message": "Message",
  "account.moved_to": "{name} has moved to:",
  "account.mute": "Mute @{name}",
  "account.mute_notifications": "Mute notifications from @{name}",
  "account.muted": "Muted",
  "account.posts": "Posts",
  "account.posts_with_replies": "Posts and replies",
  "account.profile": "Profile",
  "account.register": "Sign up",
  "account.report": "Report @{name}",
  "account.requested": "Awaiting approval. Click to cancel follow request",
  "account.share": "Share @{name}\"s profile",
  "account.show_reblogs": "Show reposts from @{name}",
  "account.unblock": "Unblock @{name}",
  "account.unblock_domain": "Unhide {domain}",
  "account.unendorse": "Don\"t feature on profile",
  "account.unfollow": "Unfollow",
  "account.unmute": "Unmute @{name}",
  "account.unmute_notifications": "Unmute notifications from @{name}",
  "account_gallery.none": "No media to show.",
  "alert.unexpected.message": "An unexpected error occurred.",
  "alert.unexpected.title": "Oops!",
  "audio.close": "Close audio",
  "audio.expand": "Expand audio",
  "audio.hide": "Hide audio",
  "audio.mute": "Mute",
  "audio.pause": "Pause",
  "audio.play": "Play",
  "audio.unmute": "Unmute",
  "boost_modal.combo": "You can press {combo} to skip this next time",
  "bundle_column_error.body": "Something went wrong while loading this component.",
  "bundle_column_error.retry": "Try again",
  "bundle_column_error.title": "Network error",
  "bundle_modal_error.close": "Close",
  "bundle_modal_error.message": "Something went wrong while loading this component.",
  "bundle_modal_error.retry": "Try again",
  "column.blocks": "Blocked users",
  "column.community": "Local timeline",
  "column.direct": "Direct messages",
  "column.domain_blocks": "Hidden domains",
  "column.edit_profile": "Edit profile",
  "column.filters": "Muted words",
  "column.follow_requests": "Follow requests",
  "column.groups": "Groups",
  "column.home": "Home",
  "column.lists": "Lists",
  "column.mutes": "Muted users",
  "column.notifications": "Notifications",
  "column.preferences": "Preferences",
  "column.public": "Federated timeline",
  "column.security": "Security",
  "column_back_button.label": "Back",
  "column_header.hide_settings": "Hide settings",
  "column_header.show_settings": "Show settings",
  "column_subheading.settings": "Settings",
  "community.column_settings.media_only": "Media Only",
  "compose_form.direct_message_warning": "This post will only be sent to the mentioned users.",
  "compose_form.direct_message_warning_learn_more": "Learn more",
  "compose_form.hashtag_warning": "This post won\"t be listed under any hashtag as it is unlisted. Only public posts can be searched by hashtag.",
  "compose_form.lock_disclaimer": "Your account is not {locked}. Anyone can follow you to view your follower-only posts.",
  "compose_form.lock_disclaimer.lock": "locked",
  "compose_form.placeholder": "What\"s on your mind?",
  "compose_form.poll.add_option": "Add a choice",
  "compose_form.poll.duration": "Poll duration",
  "compose_form.poll.option_placeholder": "Choice {number}",
  "compose_form.poll.remove_option": "Remove this choice",
  "compose_form.poll.type.hint": "Click to toggle poll type. Radio button (default) is single. Checkbox is multiple.",
  "compose_form.publish": "Publish",
  "compose_form.publish_loud": "{publish}!",
  "compose_form.sensitive.hide": "Mark media as sensitive",
  "compose_form.sensitive.marked": "Media is marked as sensitive",
  "compose_form.sensitive.unmarked": "Media is not marked as sensitive",
  "compose_form.spoiler.marked": "Text is hidden behind warning",
  "compose_form.spoiler.unmarked": "Text is not hidden",
  "compose_form.spoiler_placeholder": "Write your warning here",
  "confirmation_modal.cancel": "Cancel",
  "confirmations.block.block_and_report": "Block & Report",
  "confirmations.block.confirm": "Block",
  "confirmations.block.message": "Are you sure you want to block {name}?",
  "confirmations.delete.confirm": "Delete",
  "confirmations.delete.message": "Are you sure you want to delete this post?",
  "confirmations.delete_list.confirm": "Delete",
  "confirmations.delete_list.message": "Are you sure you want to permanently delete this list?",
  "confirmations.domain_block.confirm": "Hide entire domain",
  "confirmations.domain_block.message": "Are you really, really sure you want to block the entire {domain}? In most cases a few targeted blocks or mutes are sufficient and preferable. You will not see content from that domain in any public timelines or your notifications. Your followers from that domain will be removed.",
  "confirmations.mute.confirm": "Mute",
  "confirmations.mute.message": "Are you sure you want to mute {name}?",
  "confirmations.redraft.confirm": "Delete & redraft",
  "confirmations.redraft.message": "Are you sure you want to delete this post and re-draft it? Favorites and reposts will be lost, and replies to the original post will be orphaned.",
  "confirmations.reply.confirm": "Reply",
  "confirmations.reply.message": "Replying now will overwrite the message you are currently composing. Are you sure you want to proceed?",
  "confirmations.unfollow.confirm": "Unfollow",
  "confirmations.unfollow.message": "Are you sure you want to unfollow {name}?",
  "donate": "Donate",
  "edit_profile.fields.avatar_label": "Avatar",
  "edit_profile.fields.bio_label": "Bio",
  "edit_profile.fields.bot_label": "This is a bot account",
  "edit_profile.fields.display_name_label": "Display name",
  "edit_profile.fields.header_label": "Header",
  "edit_profile.fields.locked_label": "Lock account",
  "edit_profile.fields.meta_fields.content_placeholder": "Content",
  "edit_profile.fields.meta_fields.label_placeholder": "Label",
  "edit_profile.fields.meta_fields_label": "Profile metadata",
  "edit_profile.hints.avatar": "PNG, GIF or JPG. Will be downscaled to {size}",
  "edit_profile.hints.bot": "This account mainly performs automated actions and might not be monitored",
  "edit_profile.hints.header": "PNG, GIF or JPG. Will be downscaled to {size}",
  "edit_profile.hints.locked": "Requires you to manually approve followers",
  "edit_profile.hints.meta_fields": "You can have up to {count, plural, one {# item} other {# items}} displayed as a table on your profile",
  "edit_profile.save": "Save",
  "embed.instructions": "Embed this post on your website by copying the code below.",
  "embed.preview": "Here is what it will look like:",
  "emoji_button.activity": "Activity",
  "emoji_button.custom": "Custom",
  "emoji_button.flags": "Flags",
  "emoji_button.food": "Food & Drink",
  "emoji_button.label": "Insert emoji",
  "emoji_button.nature": "Nature",
  "emoji_button.not_found": "No emojos!! (╯°□°）╯︵ ┻━┻",
  "emoji_button.objects": "Objects",
  "emoji_button.people": "People",
  "emoji_button.recent": "Frequently used",
  "emoji_button.search": "Search...",
  "emoji_button.search_results": "Search results",
  "emoji_button.symbols": "Symbols",
  "emoji_button.travel": "Travel & Places",
  "empty_column.account_timeline": "No posts here!",
  "empty_column.account_unavailable": "Profile unavailable",
  "empty_column.blocks": "You haven\"t blocked any users yet.",
  "empty_column.community": "The local timeline is empty. Write something publicly to get the ball rolling!",
  "empty_column.direct": "You don\"t have any direct messages yet. When you send or receive one, it will show up here.",
  "empty_column.domain_blocks": "There are no hidden domains yet.",
  "empty_column.favourited_statuses": "You don\"t have any liked posts yet. When you like one, it will show up here.",
  "empty_column.favourites": "No one has liked this post yet. When someone does, they will show up here.",
  "empty_column.filters": "You haven\"t created any muted words yet.",
  "empty_column.follow_requests": "You don\"t have any follow requests yet. When you receive one, it will show up here.",
  "empty_column.group": "There is nothing in this group yet. When members of this group make new posts, they will appear here.",
  "empty_column.hashtag": "There is nothing in this hashtag yet.",
  "empty_column.home": "Your home timeline is empty! Visit {public} to get started and meet other users.",
  "empty_column.home.local_tab": "the {site_title} tab",
  "empty_column.list": "There is nothing in this list yet. When members of this list create new posts, they will appear here.",
  "empty_column.lists": "You don\"t have any lists yet. When you create one, it will show up here.",
  "empty_column.mutes": "You haven\"t muted any users yet.",
  "empty_column.notifications": "You don\"t have any notifications yet. Interact with others to start the conversation.",
  "empty_column.public": "There is nothing here! Write something publicly, or manually follow users from other servers to fill it up",
  "fediverse_tab.explanation_box.explanation": "{site_title} is part of the Fediverse, a social network made up of thousands of independent social media sites (aka 'servers'). The posts you see here are from 3rd-party servers. You have the freedom to engage with them, or to block any server you don\"t like. Pay attention to the full username after the second @ symbol to know which server a post is from. To see only {site_title} posts, visit {local}.",
  "fediverse_tab.explanation_box.title": "What is the Fediverse?",
  "follow_request.authorize": "Authorize",
  "follow_request.reject": "Reject",
  "getting_started.heading": "Getting started",
  "getting_started.open_source_notice": "{code_name} is open source software. You can contribute or report issues at {code_link} (v{code_version}).",
  "group.members.empty": "This group does not has any members.",
  "group.removed_accounts.empty": "This group does not has any removed accounts.",
  "groups.card.join": "Join",
  "groups.card.members": "Members",
  "groups.card.roles.admin": "You\"re an admin",
  "groups.card.roles.member": "You\"re a member",
  "groups.card.view": "View",
  "groups.create": "Create group",
  "groups.form.coverImage": "Upload new banner image (optional)",
  "groups.form.coverImageChange": "Banner image selected",
  "groups.form.create": "Create group",
  "groups.form.description": "Description",
  "groups.form.title": "Title",
  "groups.form.update": "Update group",
  "groups.removed_accounts": "Removed Accounts",
  "groups.tab_admin": "Manage",
  "groups.tab_featured": "Featured",
  "groups.tab_member": "Member",
  "hashtag.column_header.tag_mode.all": "and {additional}",
  "hashtag.column_header.tag_mode.any": "or {additional}",
  "hashtag.column_header.tag_mode.none": "without {additional}",
  "home.column_settings.basic": "Basic",
  "home.column_settings.show_reblogs": "Show reposts",
  "home.column_settings.show_replies": "Show replies",
  "home_column.lists": "Lists",
  "home_column_header.fediverse": "Fediverse",
  "home_column_header.home": "Home",
  "intervals.full.days": "{number, plural, one {# day} other {# days}}",
  "intervals.full.hours": "{number, plural, one {# hour} other {# hours}}",
  "intervals.full.minutes": "{number, plural, one {# minute} other {# minutes}}",
  "keyboard_shortcuts.back": "to navigate back",
  "keyboard_shortcuts.blocked": "to open blocked users list",
  "keyboard_shortcuts.boost": "to repost",
  "keyboard_shortcuts.column": "to focus a post in one of the columns",
  "keyboard_shortcuts.compose": "to focus the compose textarea",
  "keyboard_shortcuts.direct": "to open direct messages column",
  "keyboard_shortcuts.down": "to move down in the list",
  "keyboard_shortcuts.enter": "to open post",
  "keyboard_shortcuts.favourite": "to like",
  "keyboard_shortcuts.favourites": "to open likes list",
  "keyboard_shortcuts.heading": "Keyboard shortcuts",
  "keyboard_shortcuts.home": "to open home timeline",
  "keyboard_shortcuts.hotkey": "Hotkey",
  "keyboard_shortcuts.legend": "to display this legend",
  "keyboard_shortcuts.mention": "to mention author",
  "keyboard_shortcuts.muted": "to open muted users list",
  "keyboard_shortcuts.my_profile": "to open your profile",
  "keyboard_shortcuts.notifications": "to open notifications column",
  "keyboard_shortcuts.pinned": "to open pinned posts list",
  "keyboard_shortcuts.profile": "to open author\"s profile",
  "keyboard_shortcuts.reply": "to reply",
  "keyboard_shortcuts.requests": "to open follow requests list",
  "keyboard_shortcuts.search": "to focus search",
  "keyboard_shortcuts.start": "to open 'get started' column",
  "keyboard_shortcuts.toggle_hidden": "to show/hide text behind CW",
  "keyboard_shortcuts.toggle_sensitivity": "to show/hide media",
  "keyboard_shortcuts.toot": "to start a new post",
  "keyboard_shortcuts.unfocus": "to un-focus compose textarea/search",
  "keyboard_shortcuts.up": "to move up in the list",
  "lightbox.close": "Close",
  "lightbox.next": "Next",
  "lightbox.previous": "Previous",
  "lightbox.view_context": "View context",
  "list.click_to_add": "Click here to add people",
  "list_adder.header_title": "Add or Remove from Lists",
  "lists.account.add": "Add to list",
  "lists.account.remove": "Remove from list",
  "lists.delete": "Delete list",
  "lists.edit": "Edit list",
  "lists.edit.submit": "Change title",
  "lists.new.create": "Add list",
  "lists.new.create_title": "Create",
  "lists.new.save_title": "Save Title",
  "lists.new.title_placeholder": "New list title",
  "lists.search": "Search among people you follow",
  "lists.subheading": "Your lists",
  "lists.view_all": "View all lists",
  "loading_indicator.label": "Loading...",
  "login.fields.password_placeholder": "Password",
  "login.fields.username_placeholder": "Username",
  "login.log_in": "Log in",
  "login.reset_password_hint": "Trouble logging in?",
  "media_gallery.toggle_visible": "Toggle visibility",
  "missing_indicator.label": "Not found",
  "missing_indicator.sublabel": "This resource could not be found",
  "morefollows.followers_label": "…and {count} more {count, plural, one {follower} other {followers}} on remote sites.",
  "morefollows.following_label": "…and {count} more {count, plural, one {follow} other {follows}} on remote sites.",
  "mute_modal.hide_notifications": "Hide notifications from this user?",
  "navigation_bar.admin_settings": "Admin settings",
  "navigation_bar.soapbox_config": "Soapbox config",
  "navigation_bar.blocks": "Blocked users",
  "navigation_bar.community_timeline": "Local timeline",
  "navigation_bar.compose": "Compose new post",
  "navigation_bar.direct": "Direct messages",
  "navigation_bar.discover": "Discover",
  "navigation_bar.domain_blocks": "Hidden domains",
  "navigation_bar.edit_profile": "Edit profile",
  "navigation_bar.favourites": "Likes",
  "navigation_bar.filters": "Muted words",
  "navigation_bar.follow_requests": "Follow requests",
  "navigation_bar.info": "About this server",
  "navigation_bar.keyboard_shortcuts": "Hotkeys",
  "navigation_bar.lists": "Lists",
  "navigation_bar.logout": "Logout",
  "navigation_bar.messages": "Messages",
  "navigation_bar.mutes": "Muted users",
  "navigation_bar.personal": "Personal",
  "navigation_bar.pins": "Pinned posts",
  "navigation_bar.preferences": "Preferences",
  "navigation_bar.public_timeline": "Federated timeline",
  "navigation_bar.security": "Security",
  "notification.pleroma:emoji_reaction": "{name} reacted to your post",
  "notification.favourite": "{name} liked your post",
  "notification.follow": "{name} followed you",
  "notification.mention": "{name} mentioned you",
  "notification.poll": "A poll you have voted in has ended",
  "notification.reblog": "{name} reposted your post",
  "notifications.clear": "Clear notifications",
  "notifications.clear_confirmation": "Are you sure you want to permanently clear all your notifications?",
  "notifications.column_settings.alert": "Desktop notifications",
  "notifications.column_settings.favourite": "Likes:",
  "notifications.column_settings.filter_bar.advanced": "Display all categories",
  "notifications.column_settings.filter_bar.category": "Quick filter bar",
  "notifications.column_settings.filter_bar.show": "Show",
  "notifications.column_settings.follow": "New followers:",
  "notifications.column_settings.mention": "Mentions:",
  "notifications.column_settings.poll": "Poll results:",
  "notifications.column_settings.push": "Push notifications",
  "notifications.column_settings.reblog": "Reposts:",
  "notifications.column_settings.show": "Show in column",
  "notifications.column_settings.sound": "Play sound",
  "notifications.filter.all": "All",
  "notifications.filter.boosts": "Reposts",
  "notifications.filter.favourites": "Likes",
  "notifications.filter.follows": "Follows",
  "notifications.filter.mentions": "Mentions",
  "notifications.filter.polls": "Poll results",
  "notifications.group": "{count} notifications",
  "notifications.queue_label": "Click to see {count} new {count, plural, one {notification} other {notifications}}",
  "pinned_statuses.none": "No pins to show.",
  "poll.closed": "Closed",
  "poll.refresh": "Refresh",
  "poll.total_votes": "{count, plural, one {# vote} other {# votes}}",
  "poll.vote": "Vote",
  "poll_button.add_poll": "Add a poll",
  "poll_button.remove_poll": "Remove poll",
  "preferences.fields.auto_play_gif_label": "Auto-play animated GIFs",
  "preferences.fields.boost_modal_label": "Show confirmation dialog before reposting",
  "preferences.fields.delete_modal_label": "Show confirmation dialog before deleting a post",
  "preferences.fields.demetricator_label": "Use Demetricator",
  "preferences.fields.dyslexic_font_label": "Dyslexic mode",
  "preferences.fields.expand_spoilers_label": "Always expand posts marked with content warnings",
  "preferences.fields.language_label": "Language",
  "preferences.fields.privacy_label": "Post privacy",
  "preferences.fields.reduce_motion_label": "Reduce motion in animations",
  "preferences.fields.system_font_label": "Use system\"s default font",
  "preferences.fields.theme_label": "Theme",
  "preferences.fields.unfollow_modal_label": "Show confirmation dialog before unfollowing someone",
  "preferences.hints.demetricator": "Decrease social media anxiety by hiding all numbers from the site.",
  "preferences.hints.privacy_followers_only": "Only show to followers",
  "preferences.hints.privacy_public": "Everyone can see",
  "preferences.hints.privacy_unlisted": "Everyone can see, but not listed on public timelines",
  "preferences.options.privacy_followers_only": "Followers-only",
  "preferences.options.privacy_public": "Public",
  "preferences.options.privacy_unlisted": "Unlisted",
  "preferences.options.theme_dark": "Dark",
  "preferences.options.theme_light": "Light",
  "privacy.change": "Adjust post privacy",
  "privacy.direct.long": "Post to mentioned users only",
  "privacy.direct.short": "Direct",
  "privacy.private.long": "Post to followers only",
  "privacy.private.short": "Followers-only",
  "privacy.public.long": "Post to public timelines",
  "privacy.public.short": "Public",
  "privacy.unlisted.long": "Do not post to public timelines",
  "privacy.unlisted.short": "Unlisted",
  "regeneration_indicator.label": "Loading…",
  "regeneration_indicator.sublabel": "Your home feed is being prepared!",
  "registration.agreement": "I agree to the {tos}.",
  "registration.fields.confirm_placeholder": "Password (again)",
  "registration.fields.email_placeholder": "E-Mail address",
  "registration.fields.password_placeholder": "Password",
  "registration.fields.username_placeholder": "Username",
  "registration.lead": "With an account on {instance} you\"ll be able to follow people on any server in the fediverse.",
  "registration.sign_up": "Sign up",
  "registration.tos": "Terms of Service",
  "registration.reason": "Reason for Joining",
  "relative_time.days": "{number}d",
  "relative_time.hours": "{number}h",
  "relative_time.just_now": "now",
  "relative_time.minutes": "{number}m",
  "relative_time.seconds": "{number}s",
  "reply_indicator.cancel": "Cancel",
  "report.block": "Block {target}",
  "report.block_hint": "Do you also want to block this account?",
  "report.forward": "Forward to {target}",
  "report.forward_hint": "The account is from another server. Send a copy of the report there as well?",
  "report.hint": "The report will be sent to your server moderators. You can provide an explanation of why you are reporting this account below:",
  "report.placeholder": "Additional comments",
  "report.submit": "Submit",
  "report.target": "Reporting {target}",
  "search.placeholder": "Search",
  "search_popout.search_format": "Advanced search format",
  "search_popout.tips.full_text": "Simple text returns posts you have written, favorited, reposted, or have been mentioned in, as well as matching usernames, display names, and hashtags.",
  "search_popout.tips.hashtag": "hashtag",
  "search_popout.tips.status": "post",
  "search_popout.tips.user": "user",
  "search_results.accounts": "People",
  "search_results.hashtags": "Hashtags",
  "search_results.statuses": "Posts",
  "search_results.top": "Top",
  "search_results.total": "{count, number} {count, plural, one {result} other {results}}",
  "security.fields.email.label": "Email address",
  "security.fields.new_password.label": "New password",
  "security.fields.old_password.label": "Current password",
  "security.fields.password.label": "Password",
  "security.fields.password_confirmation.label": "New password (again)",
  "security.headers.tokens": "Sessions",
  "security.headers.update_email": "Change Email",
  "security.headers.update_password": "Change Password",
  "security.submit": "Save changes",
  "security.tokens.revoke": "Revoke",
  "security.update_email.fail": "Update email failed.",
  "security.update_email.success": "Email successfully updated.",
  "security.update_password.fail": "Update password failed.",
  "security.update_password.success": "Password successfully updated.",
  "signup_panel.subtitle": "Sign up now to discuss.",
  "signup_panel.title": "New to {site_title}?",
  "status.admin_account": "Open moderation interface for @{name}",
  "status.admin_status": "Open this post in the moderation interface",
  "status.block": "Block @{name}",
  "status.cancel_reblog_private": "Un-repost",
  "status.cannot_reblog": "This post cannot be reposted",
  "status.copy": "Copy link to post",
  "status.delete": "Delete",
  "status.detailed_status": "Detailed conversation view",
  "status.direct": "Direct message @{name}",
  "status.embed": "Embed",
  "status.favourite": "Like",
  "status.filtered": "Filtered",
  "status.load_more": "Load more",
  "status.media_hidden": "Media hidden",
  "status.mention": "Mention @{name}",
  "status.more": "More",
  "status.mute": "Mute @{name}",
  "status.mute_conversation": "Mute conversation",
  "status.open": "Expand this post",
  "status.pin": "Pin on profile",
  "status.pinned": "Pinned post",
  "status.read_more": "Read more",
  "status.reblog": "Repost",
  "status.reblog_private": "Repost to original audience",
  "status.reblogged_by": "{name} reposted",
  "status.reblogs.empty": "No one has reposted this post yet. When someone does, they will show up here.",
  "status.redraft": "Delete & re-draft",
  "status.remove_account_from_group": "Remove account from group",
  "status.remove_post_from_group": "Remove post from group",
  "status.reply": "Reply",
  "status.replyAll": "Reply to thread",
  "status.report": "Report @{name}",
  "status.sensitive_warning": "Sensitive content",
  "status.share": "Share",
  "status.show_less": "Show less",
  "status.show_less_all": "Show less for all",
  "status.show_more": "Show more",
  "status.show_more_all": "Show more for all",
  "status.show_thread": "Show thread",
  "status.unmute_conversation": "Unmute conversation",
  "status.unpin": "Unpin from profile",
  "status_list.queue_label": "Click to see {count} new {count, plural, one {post} other {posts}}",
  "suggestions.dismiss": "Dismiss suggestion",
  "tabs_bar.apps": "Apps",
  "tabs_bar.home": "Home",
  "tabs_bar.news": "News",
  "tabs_bar.notifications": "Notifications",
  "tabs_bar.post": "Post",
  "tabs_bar.search": "Search",
  "time_remaining.days": "{number, plural, one {# day} other {# days}} left",
  "time_remaining.hours": "{number, plural, one {# hour} other {# hours}} left",
  "time_remaining.minutes": "{number, plural, one {# minute} other {# minutes}} left",
  "time_remaining.moments": "Moments remaining",
  "time_remaining.seconds": "{number, plural, one {# second} other {# seconds}} left",
  "trends.count_by_accounts": "{count} {rawCount, plural, one {person} other {people}} talking",
  "trends.title": "Trends",
  "ui.beforeunload": "Your draft will be lost if you leave.",
  "unauthorized_modal.footer": "Already have an account? {login}.",
  "unauthorized_modal.text": "You need to be logged in to do that.",
  "unauthorized_modal.title": "Sign up for {site_title}",
  "upload_area.title": "Drag & drop to upload",
  "upload_button.label": "Add media attachment",
  "upload_error.limit": "File upload limit exceeded.",
  "upload_error.poll": "File upload not allowed with polls.",
  "upload_form.description": "Describe for the visually impaired",
  "upload_form.focus": "Change preview",
  "upload_form.undo": "Delete",
  "upload_progress.label": "Uploading...",
  "video.close": "Close video",
  "video.exit_fullscreen": "Exit full screen",
  "video.expand": "Expand video",
  "video.fullscreen": "Full screen",
  "video.hide": "Hide video",
  "video.mute": "Mute sound",
  "video.pause": "Pause",
  "video.play": "Play",
  "video.unmute": "Unmute sound",
  "who_to_follow.title": "Who To Follow"
}
